01_load.qmd
…
} else {
  # Download the gzipped file
  GET(meta_url, write_disk("data/_raw/GSE31684_meta_data.tsv"
                           ))
  
  # Unzip and read the contents using tidyverse functions
  meta_data <- read_tsv(gzfile("data/_raw/GSE31684_meta_data.tsv"),  show_col_types = FALSE)
}
                          
# View the first few rows of the data
meta_data

# A tibble: 93 × 24
   GEO       ID     Gender PreOpClinStage `Age at RC` `Survival Months` RC_Stage
   <chr>     <chr>  <chr>  <chr>                <dbl>             <dbl> <chr>   
 1 GSM786491 1_pT2  male   T3                    64.1            104.   pT2     
 2 GSM786492 2_pT2  male   T2                    62.1             13.2  pT2     
 3 GSM786493 3_pT2  female T2                    66.0             19.8  pT2     
 4 GSM786494 4_pT4  male   T2                    56.1             16.4  pT4     
 5 GSM786495 5_pT4  female T3                    68               13.1  pT4     
 6 GSM786496 6_pT3  male   T2                    69.9              4.44 pT3     
 7 GSM786497 7_pT1  male   T2                    65               87.9  pT1     
 8 GSM786498 8_pT3  male   T1                    69.4            173.   pT3     
 9 GSM786499 9_pT2  male   T2                    47.5            108.   pT2     
10 GSM786500 10_pT3 female T2                    77.9            176.   pT3     
# ℹ 83 more rows
# ℹ 17 more variables: RC_Histology <chr>, `PLND Result` <chr>,
#   `RC Grade` <chr>, `Nomogram Score` <dbl>, `Distant Mets` <dbl>,
#   `Local Recurrence` <dbl>, `Urothelial Recurrence` <dbl>, Metastasis <dbl>,
#   `Last known status` <chr>, PreRC_Chemo <chr>, `Post RC_Chemo` <chr>,
#   `PostChemo type` <chr>, Smoking <chr>, `SmokingPack-Years` <chr>,
#   `Recurrence Free Survival Months (Distant and Local)` <dbl>, …
…
gene_exp_data <- read_tsv("../data/_raw/gene_exp.tsv")

Rows: 54676 Columns: 94
── Column specification ────────────────────────────────────────────────────────
Delimiter: "\t"
chr  (1): ID_REF
dbl (93): GSM786491, GSM786492, GSM786493, GSM786494, GSM786495, GSM786496, ...

ℹ Use `spec()` to retrieve the full column specification for this data.
ℹ Specify the column types or set `show_col_types = FALSE` to quiet this message.

gene_exp_data

# A tibble: 54,676 × 94
   ID_REF  GSM786491 GSM786492 GSM786493 GSM786494 GSM786495 GSM786496 GSM786497
   <chr>       <dbl>     <dbl>     <dbl>     <dbl>     <dbl>     <dbl>     <dbl>
 1 1007_s…      6.80     11.3      11.0       8.95     11.7      11.7       9.88
 2 1053_at      8.39      8.16      8.01      8.15      8.16      7.99      7.96
 3 117_at       3.89      4.65      3.73      4.19      3.53      3.73      3.80
 4 121_at       5.43      5.43      5.42      5.49      5.43      5.43      5.43
 5 1255_g…      2.23      2.23      2.23      2.23      2.23      2.23      2.23
 6 1294_at      2.75      5.74      3.05      2.85      3.05      5.42      3.21
 7 1316_at      2.69      2.72      2.69      2.69      2.69      2.69      2.99
 8 1320_at      2.23      2.23      2.23      2.23      2.23      2.23      2.23
 9 1405_i…      6.71     13.0       6.96      6.90      4.83      4.83     12.9 
10 1431_at      2.23      2.23      2.23      2.23      2.23      2.23      2.23
# ℹ 54,666 more rows
# ℹ 86 more variables: GSM786498 <dbl>, GSM786499 <dbl>, GSM786500 <dbl>,
#   GSM786501 <dbl>, GSM786502 <dbl>, GSM786503 <dbl>, GSM786504 <dbl>,
#   GSM786505 <dbl>, GSM786506 <dbl>, GSM786507 <dbl>, GSM786508 <dbl>,
#   GSM786509 <dbl>, GSM786510 <dbl>, GSM786511 <dbl>, GSM786512 <dbl>,
#   GSM786513 <dbl>, GSM786514 <dbl>, GSM786515 <dbl>, GSM786516 <dbl>,
#   GSM786517 <dbl>, GSM786518 <dbl>, GSM786519 <dbl>, GSM786520 <dbl>, …
…
